Rodando SelectionSort
SelectionSort [10%][100.000]
argumento: [ 1 10.100000.7.in ] iniciou às 16:17:03
argumento: [ 1 10.100000.8.in ] iniciou às 16:17:16
argumento: [ 1 10.100000.9.in ] iniciou às 16:17:31
argumento: [ 1 10.100000.10.in ] iniciou às 16:17:45
SelectionSort [10%][500.000]
argumento: [ 1 10.500000.6.in ] iniciou às 16:18:00
argumento: [ 1 10.500000.7.in ] iniciou às 16:24:43
argumento: [ 1 10.500000.8.in ] iniciou às 16:31:10
argumento: [ 1 10.500000.9.in ] iniciou às 16:37:47
argumento: [ 1 10.500000.10.in ] iniciou às 16:44:53
SelectionSort [10%][1.000.000]
SelectionSort [50%][100.000]
argumento: [ 1 50.100000.1.in ] iniciou às 16:51:49
argumento: [ 1 50.100000.2.in ] iniciou às 16:52:03
argumento: [ 1 50.100000.3.in ] iniciou às 16:52:16
argumento: [ 1 50.100000.4.in ] iniciou às 16:52:30
argumento: [ 1 50.100000.5.in ] iniciou às 16:52:44
argumento: [ 1 50.100000.6.in ] iniciou às 16:52:57
argumento: [ 1 50.100000.7.in ] iniciou às 16:53:11
argumento: [ 1 50.100000.8.in ] iniciou às 16:53:26
argumento: [ 1 50.100000.9.in ] iniciou às 16:53:39
argumento: [ 1 50.100000.10.in ] iniciou às 16:53:53
SelectionSort [50%][500.000]
argumento: [ 1 50.500000.1.in ] iniciou às 16:54:06
argumento: [ 1 50.500000.2.in ] iniciou às 17:00:43
argumento: [ 1 50.500000.3.in ] iniciou às 17:07:16
argumento: [ 1 50.500000.4.in ] iniciou às 17:13:55
argumento: [ 1 50.500000.5.in ] iniciou às 17:20:56
argumento: [ 1 50.500000.6.in ] iniciou às 17:27:40
argumento: [ 1 50.500000.7.in ] iniciou às 17:34:21
argumento: [ 1 50.500000.8.in ] iniciou às 17:40:56
argumento: [ 1 50.500000.9.in ] iniciou às 17:47:50
argumento: [ 1 50.500000.10.in ] iniciou às 17:54:40
SelectionSort [50%][1.000.000]
argumento: [ 1 50.1000000.1.in ] iniciou às 18:01:55
argumento: [ 1 50.1000000.2.in ] iniciou às 18:30:03

MergeSort [10%][100.000]
argumento: [ 3 10.100000.1.in ] iniciou às 18:35:44
argumento: [ 3 10.100000.2.in ] iniciou às 18:36:38
argumento: [ 3 10.100000.3.in ] iniciou às 18:37:32
argumento: [ 3 10.100000.4.in ] iniciou às 18:38:26
argumento: [ 3 10.100000.5.in ] iniciou às 18:39:22
argumento: [ 3 10.100000.6.in ] iniciou às 18:40:16
argumento: [ 3 10.100000.7.in ] iniciou às 18:41:10
argumento: [ 3 10.100000.8.in ] iniciou às 18:42:10
argumento: [ 3 10.100000.9.in ] iniciou às 18:43:07
argumento: [ 3 10.100000.10.in ] iniciou às 18:44:01

MergeSort [50%][100.000]
argumento: [ 3 50.100000.1.in ] iniciou às 19:30:34
argumento: [ 3 50.100000.2.in ] iniciou às 19:31:10
argumento: [ 3 50.100000.3.in ] iniciou às 19:31:45
argumento: [ 3 50.100000.4.in ] iniciou às 19:32:20
argumento: [ 3 50.100000.5.in ] iniciou às 19:32:56
argumento: [ 3 50.100000.6.in ] iniciou às 19:33:31
argumento: [ 3 50.100000.7.in ] iniciou às 19:34:06
argumento: [ 3 50.100000.8.in ] iniciou às 19:34:42
argumento: [ 3 50.100000.9.in ] iniciou às 19:35:18
argumento: [ 3 50.100000.10.in ] iniciou às 19:35:56

MergeSort [90%][100.000]
argumento: [ 3 90.100000.1.in ] iniciou às 20:00:30
argumento: [ 3 90.100000.2.in ] iniciou às 20:00:50
argumento: [ 3 90.100000.3.in ] iniciou às 20:01:10
argumento: [ 3 90.100000.4.in ] iniciou às 20:01:32
argumento: [ 3 90.100000.5.in ] iniciou às 20:01:52
argumento: [ 3 90.100000.6.in ] iniciou às 20:02:13
argumento: [ 3 90.100000.7.in ] iniciou às 20:0
2:33
argumento: [ 3 90.100000.8.in ] iniciou às 20:02:54
argumento: [ 3 90.100000.9.in ] iniciou às 20:03:14
argumento: [ 3 90.100000.10.in ] iniciou às 20:03:34
MergeSort [90%][500.000]
argumento: [ 3 90.500000.1.in ] iniciou às 20:03:55
argumento: [ 3 90.500000.2.in ] iniciou às 20:17:04

Rodando QuickSort
QuickSort [10%][100.000]
argumento: [ 4 10.100000.1.in ] iniciou às 20:33:06
argumento: [ 4 10.100000.2.in ] iniciou às 20:33:13
argumento: [ 4 10.100000.3.in ] iniciou às 20:33:19
argumento: [ 4 10.100000.4.in ] iniciou às 20:33:26
argumento: [ 4 10.100000.5.in ] iniciou às 20:33:33
argumento: [ 4 10.100000.6.in ] iniciou às 20:33:40
argumento: [ 4 10.100000.7.in ] iniciou às 20:33:47
argumento: [ 4 10.100000.8.in ] iniciou às 20:33:54
argumento: [ 4 10.100000.9.in ] iniciou às 20:34:00
argumento: [ 4 10.100000.10.in ] iniciou às 20:34:07
QuickSort [10%][500.000]
argumento: [ 4 10.500000.1.in ] iniciou às 20:34:14
argumento: [ 4 10.500000.2.in ] iniciou às 20:37:30
argumento: [ 4 10.500000.3.in ] iniciou às 20:40:51
argumento: [ 4 10.500000.4.in ] iniciou às 20:44:09
argumento: [ 4 10.500000.5.in ] iniciou às 20:47:27
argumento: [ 4 10.500000.6.in ] iniciou às 20:50:46
argumento: [ 4 10.500000.7.in ] iniciou às 20:54:06
argumento: [ 4 10.500000.8.in ] iniciou às 20:57:33
argumento: [ 4 10.500000.9.in ] iniciou às 21:00:59
argumento: [ 4 10.500000.10.in ] iniciou às 21:04:29
QuickSort [10%][1.000.000]
argumento: [ 4 10.1000000.1.in ] iniciou às 21:07:56
argumento: [ 4 10.1000000.2.in ] iniciou às 21:21:38
argumento: [ 4 10.1000000.3.in ] iniciou às 21:35:35
argumento: [ 4 10.1000000.4.in ] iniciou às 21:50:11
argumento: [ 4 10.1000000.5.in ] iniciou às 22:04:23
argumento: [ 4 10.1000000.6.in ] iniciou às 22:18:21
argumento: [ 4 10.1000000.7.in ] iniciou às 22:33:02
argumento: [ 4 10.1000000.8.in ] iniciou às 22:47:08
argumento: [ 4 10.1000000.9.in ] iniciou às 23:01:22

uickSort [50%][100.000]
argumento: [ 4 50.100000.1.in ] iniciou às 23:55:48
argumento: [ 4 50.100000.2.in ] iniciou às 23:55:54
argumento: [ 4 50.100000.3.in ] iniciou às 23:56:01
argumento: [ 4 50.100000.4.in ] iniciou às 23:56:07
argumento: [ 4 50.100000.5.in ] iniciou às 23:56:14
argumento: [ 4 50.100000.6.in ] iniciou às 23:56:21
argumento: [ 4 50.100000.7.in ] iniciou às 23:56:27
argumento: [ 4 50.100000.8.in ] iniciou às 23:56:34
argumento: [ 4 50.100000.9.in ] iniciou às 23:56:41
argumento: [ 4 50.100000.10.in ] iniciou às 23:56:47
QuickSort [50%][500.000]
argumento: [ 4 50.500000.1.in ] iniciou às 23:56:54
argumento: [ 4 50.500000.2.in ] iniciou às 00:00:10
argumento: [ 4 50.500000.3.in ] iniciou às 00:03:27
argumento: [ 4 50.500000.4.in ] iniciou às 00:06:46
argumento: [ 4 50.500000.5.in ] iniciou às 00:10:08
argumento: [ 4 50.500000.6.in ] iniciou às 00:14:03
argumento: [ 4 50.500000.7.in ] iniciou às 00:18:14
argumento: [ 4 50.500000.8.in ] iniciou às 00:22:29
argumento: [ 4 50.500000.9.in ] iniciou às 00:26:46
argumento: [ 4 50.500000.10.in ] iniciou às 00:30:59
QuickSort [50%][1.000.000]
argumento: [ 4 50.1000000.1.in ] iniciou às 00:35:16
argumento: [ 4 50.1000000.2.in ] iniciou às 00:49:46

QuickSort [90%][100.000]
argumento: [ 4 90.100000.1.in ] iniciou às 02:55:06
argumento: [ 4 90.100000.2.in ] iniciou às 02:55:14
argumento: [ 4 90.100000.3.in ] iniciou às 02:55:21
argumento: [ 4 90.100000.4.in ] iniciou às 02:55:28
argumento: [ 4 90.100000.5.in ] iniciou às 02:55:35
argumento: [ 4 90.100000.6.in ] iniciou às 02:55:41
argumento: [ 4 90.100000.7.in ] iniciou às 02:55:48
argumento: [ 4 90.100000.8.in ] iniciou às 02:55:55
argumento: [ 4 90.100000.9.in ] iniciou às 02:56:01
argumento: [ 4 90.100000.10.in ] iniciou às 02:56:08
QuickSort [90%][500.000]
argumento: [ 4 90.500000.1.in ] iniciou às 02:56:14
argumento: [ 4 90.500000.2.in ] iniciou às 02:59:23
argumento: [ 4 90.500000.3.in ] iniciou às 03:02:32
argumento: [ 4 90.500000.4.in ] iniciou às 03:05:43
argumento: [ 4 90.500000.5.in ] iniciou às 03:08:51
argumento: [ 4 90.500000.6.in ] iniciou às 03:12:01
argumento: [ 4 90.500000.7.in ] iniciou às 03:15:11
argumento: [ 4 90.500000.8.in ] iniciou às 03:18:20
argumento: [ 4 90.500000.9.in ] iniciou às 03:21:30
argumento: [ 4 90.500000.10.in ] iniciou às 03:24:40
QuickSort [90%][1.000.000]
argumento: [ 4 90.1000000.1.in ] iniciou às 03:27:50
argumento: [ 4 90.1000000.2.in ] iniciou às 03:40:59
argumento: [ 4 90.1000000.3.in ] iniciou às 03:54:00
argumento: [ 4 90.1000000.4.in ] iniciou às 04:06:59
argumento: [ 4 90.1000000.5.in ] iniciou às 04:20:03
argumento: [ 4 90.1000000.6.in ] iniciou às 04:33:06
argumento: [ 4 90.1000000.7.in ] iniciou às 04:46:12
argumento: [ 4 90.1000000.8.in ] iniciou às 04:59:15
argumento: [ 4 90.1000000.9.in ] iniciou às 05:12:19
argumento: [ 4 90.1000000.10.in ] iniciou às 05:25:25

Rodando HeapSort
HeapSort [10%][100.000]
argumento: [ 5 10.100000.1.in ] iniciou às 08:16:30
argumento: [ 5 10.100000.2.in ] iniciou às 08:16:30
argumento: [ 5 10.100000.3.in ] iniciou às 08:16:30
argumento: [ 5 10.100000.4.in ] iniciou às 08:16:30
argumento: [ 5 10.100000.5.in ] iniciou às 08:16:30
argumento: [ 5 10.100000.6.in ] iniciou às 08:16:30
argumento: [ 5 10.100000.7.in ] iniciou às 08:16:30
argumento: [ 5 10.100000.8.in ] iniciou às 08:16:31
argumento: [ 5 10.100000.9.in ] iniciou às 08:16:31
argumento: [ 5 10.100000.10.in ] iniciou às 08:16:31
HeapSort [10%][500.000]
argumento: [ 5 10.500000.1.in ] iniciou às 08:16:31
argumento: [ 5 10.500000.2.in ] iniciou às 08:16:31
argumento: [ 5 10.500000.3.in ] iniciou às 08:16:32
argumento: [ 5 10.500000.4.in ] iniciou às 08:16:32
argumento: [ 5 10.500000.5.in ] iniciou às 08:16:33
argumento: [ 5 10.500000.6.in ] iniciou às 08:16:33
argumento: [ 5 10.500000.7.in ] iniciou às 08:16:34
argumento: [ 5 10.500000.8.in ] iniciou às 08:16:34
argumento: [ 5 10.500000.9.in ] iniciou às 08:16:35
argumento: [ 5 10.500000.10.in ] iniciou às 08:16:36
HeapSort [10%][1.000.000]
argumento: [ 5 10.1000000.1.in ] iniciou às 08:16:36
argumento: [ 5 10.1000000.2.in ] iniciou às 08:16:37
argumento: [ 5 10.1000000.3.in ] iniciou às 08:16:38
argumento: [ 5 10.1000000.4.in ] iniciou às 08:16:39
argumento: [ 5 10.1000000.5.in ] iniciou às 08:16:40
argumento: [ 5 10.1000000.6.in ] iniciou às 08:16:41
argumento: [ 5 10.1000000.7.in ] iniciou às 08:16:42
argumento: [ 5 10.1000000.8.in ] iniciou às 08:16:44
argumento: [ 5 10.1000000.9.in ] iniciou às 08:16:45
argumento: [ 5 10.1000000.10.in ] iniciou às 08:16:46
HeapSort [50%][100.000]
argumento: [ 5 50.100000.1.in ] iniciou às 08:16:47
argumento: [ 5 50.100000.2.in ] iniciou às 08:16:47
argumento: [ 5 50.100000.3.in ] iniciou às 08:16:47
argumento: [ 5 50.100000.4.in ] iniciou às 08:16:47
argumento: [ 5 50.100000.5.in ] iniciou às 08:16:47
argumento: [ 5 50.100000.6.in ] iniciou às 08:16:47
argumento: [ 5 50.100000.7.in ] iniciou às 08:16:47
argumento: [ 5 50.100000.8.in ] iniciou às 08:16:47
argumento: [ 5 50.100000.9.in ] iniciou às 08:16:48
argumento: [ 5 50.100000.10.in ] iniciou às 08:16:48
HeapSort [50%][500.000]
argumento: [ 5 50.500000.1.in ] iniciou às 08:16:48
argumento: [ 5 50.500000.2.in ] iniciou às 08:16:48
argumento: [ 5 50.500000.3.in ] iniciou às 08:16:49
argumento: [ 5 50.500000.4.in ] iniciou às 08:16:49
argumento: [ 5 50.500000.5.in ] iniciou às 08:16:50
argumento: [ 5 50.500000.6.in ] iniciou às 08:16:50
argumento: [ 5 50.500000.7.in ] iniciou às 08:16:51
argumento: [ 5 50.500000.8.in ] iniciou às 08:16:51
argumento: [ 5 50.500000.9.in ] iniciou às 08:16:52
argumento: [ 5 50.500000.10.in ] iniciou às 08:16:52
HeapSort [50%][1.000.000]
argumento: [ 5 50.1000000.1.in ] iniciou às 08:16:53
argumento: [ 5 50.1000000.2.in ] iniciou às 08:16:54
argumento: [ 5 50.1000000.3.in ] iniciou às 08:16:55
argumento: [ 5 50.1000000.4.in ] iniciou às 08:16:56
argumento: [ 5 50.1000000.5.in ] iniciou às 08:16:57
argumento: [ 5 50.1000000.6.in ] iniciou às 08:16:58
argumento: [ 5 50.1000000.7.in ] iniciou às 08:16:59
argumento: [ 5 50.1000000.8.in ] iniciou às 08:17:00
argumento: [ 5 50.1000000.9.in ] iniciou às 08:17:01
argumento: [ 5 50.1000000.10.in ] iniciou às 08:17:02
HeapSort [90%][100.000]
argumento: [ 5 90.100000.1.in ] iniciou às 08:17:03
argumento: [ 5 90.100000.2.in ] iniciou às 08:17:03
argumento: [ 5 90.100000.3.in ] iniciou às 08:17:03
argumento: [ 5 90.100000.4.in ] iniciou às 08:17:03
argumento: [ 5 90.100000.5.in ] iniciou às 08:17:03
argumento: [ 5 90.100000.6.in ] iniciou às 08:17:04
argumento: [ 5 90.100000.7.in ] iniciou às 08:17:04
argumento: [ 5 90.100000.8.in ] iniciou às 08:17:04
argumento: [ 5 90.100000.9.in ] iniciou às 08:17:04
argumento: [ 5 90.100000.10.in ] iniciou às 08:17:04
HeapSort [90%][500.000]
argumento: [ 5 90.500000.1.in ] iniciou às 08:17:04
argumento: [ 5 90.500000.2.in ] iniciou às 08:17:04
argumento: [ 5 90.500000.3.in ] iniciou às 08:17:05
argumento: [ 5 90.500000.4.in ] iniciou às 08:17:05
argumento: [ 5 90.500000.5.in ] iniciou às 08:17:06
argumento: [ 5 90.500000.6.in ] iniciou às 08:17:06
argumento: [ 5 90.500000.7.in ] iniciou às 08:17:07
argumento: [ 5 90.500000.8.in ] iniciou às 08:17:07
argumento: [ 5 90.500000.9.in ] iniciou às 08:17:08
argumento: [ 5 90.500000.10.in ] iniciou às 08:17:08
HeapSort [90%][1.000.000]
argumento: [ 5 90.1000000.1.in ] iniciou às 08:17:09
argumento: [ 5 90.1000000.2.in ] iniciou às 08:17:10
argumento: [ 5 90.1000000.3.in ] iniciou às 08:17:11
argumento: [ 5 90.1000000.4.in ] iniciou às 08:17:12
argumento: [ 5 90.1000000.5.in ] iniciou às 08:17:13
argumento: [ 5 90.1000000.6.in ] iniciou às 08:17:14
argumento: [ 5 90.1000000.7.in ] iniciou às 08:17:15
argumento: [ 5 90.1000000.8.in ] iniciou às 08:17:15
argumento: [ 5 90.1000000.9.in ] iniciou às 08:17:16
argumento: [ 5 90.1000000.10.in ] iniciou às 08:17:17

InsertionSort [50%][100.000]
argumento: [ 2 50.100000.1.in ] iniciou às 10:15:32
argumento: [ 2 50.100000.2.in ] iniciou às 10:16:10
argumento: [ 2 50.100000.3.in ] iniciou às 10:17:04
argumento: [ 2 50.100000.4.in ] iniciou às 10:17:52
argumento: [ 2 50.100000.5.in ] iniciou às 10:18:34
argumento: [ 2 50.100000.6.in ] iniciou às 10:19:26
argumento: [ 2 50.100000.7.in ] iniciou às 10:20:18
argumento: [ 2 50.100000.8.in ] iniciou às 10:20:46
argumento: [ 2 50.100000.9.in ] iniciou às 10:21:37
argumento: [ 2 50.100000.10.in ] iniciou às 10:22:11


